%YAML 1.1
%TAG !u! tag:unity3d.com,2011:
--- !u!1045 &1
EditorBuildSettings:
  m_ObjectHideFlags: 0
  serializedVersion: 2
  m_Scenes:
  - enabled: 1
    path: Assets/Menu.unity
    guid: 2186e98cb4542a44e890fefc1b8e10fe
  - enabled: 1
    path: Assets/Game.unity
    guid: abd79685154866a4a9ca0fc02b2b2283
  m_configObjects: {}
